name, occupation, bg_col, photo
"Ada Lovelace", Programmer, #3accd1, 1.png
"Alan Turing", Code Breaker, "#e78940", 2.png
"Linus Torvalds", "Kernel Developer, Linux Founder", #de88d9, 3.png
Tux, Mascot, #bed7ff, 4.png
Jörg Läßøyé, "Unicode tester", #ababab, 1.png
